DO1 1.0
RE1 1.0
MI1 1.0
FA1 1.0
SOL1 1.0
LA1 1.0
SI1 1.0
DO2 1.0
SI1 1.0
SOL1 1.0
LA1 1.0
SI1 1.0
DO2 1.0
RE2 1.0
MI2 1.0
FA2 1.0
SOL2 1.0
LA2 1.0
SOL2 1.0
MI2 1.0
RE2 1.0
DO2 1.0
PAUSE 2.0
SOL1 1.0
DO2 1.0
PAUSE 2.0
SOL1 1.0
DO2 1.0
DO1 1.0
RE1 1.0
LA1 1.0
FA1 1.0
RE2 1.0
PAUSE 1.0
SI1 1.0
SOL1 1.0
MI1 1.0
FA1 1.0
DO2 1.0
LA1 1.0
LA2 1.0
FA2 1.0
PAUSE 2.0
LA2 1.0
FA2 1.0
SOL2 1.0
SI1 1.0
RE2 1.0
SOL1 1.0
FA1 1.0
MI1 1.0
RE1 1.0
LA1 1.0
PAUSE 2.0
RE2 1.0
MI2 1.0
DO2 1.0
LA1 1.0
MI1 1.0
DO1 1.0
PAUSE 4.0
DO1 2.0
MI1 2.0
SOL1 2.0
DO2 2.0
MI2 2.0
SOL2 2.0
LA2 2.0
FA2 2.0
RE2 2.0
LA1 2.0
FA1 2.0
RE1 2.0
MI1 2.0
SOL1 2.0
SI1 2.0
MI2 2.0
PAUSE 4.0
FA2 4.0
DO2 4.0
LA1 4.0
FA1 4.0
SOL1 4.0
SI1 4.0
RE2 4.0
SOL2 4.0
PAUSE 2.0
LA2 2.0
MI2 2.0
PAUSE 2.0
DO2 4.0
LA1 4.0
SOL1 4.0
FA1 4.0
MI1 1.0
PAUSE 1.0
MI1 1.0
PAUSE 1.0
RE1 4.0
DO1 2.0
MI1 1.0
PAUSE 1.0
SOL1 2.0
SI1 1.0
PAUSE 1.0
RE2 2.0
FA2 1.0
PAUSE 1.0
LA2 2.0
SOL2 2.0
MI2 2.0
DO2 2.0
LA1 2.0
FA1 2.0
MI1 2.0
RE1 2.0
DO1 4.0
PAUSE 4.0